<?xml version="1.0" encoding="UTF-8" standalone="no"?>
<!-- Created with Inkscape (http://www.inkscape.org/) -->

<svg
   width="6mm"
   height="3.1329999mm"
   viewBox="0 0 6 3.1329999"
   version="1.1"
   id="svg3804"
   inkscape:version="1.3.2 (091e20ef0f, 2023-11-25, custom)"
   sodipodi:docname="cross.svg"
   xmlns:inkscape="http://www.inkscape.org/namespaces/inkscape"
   xmlns:sodipodi="http://sodipodi.sourceforge.net/DTD/sodipodi-0.dtd"
   xmlns="http://www.w3.org/2000/svg"
   xmlns:svg="http://www.w3.org/2000/svg"
   xmlns:rdf="http://www.w3.org/1999/02/22-rdf-syntax-ns#"
   xmlns:cc="http://creativecommons.org/ns#"
   xmlns:dc="http://purl.org/dc/elements/1.1/">
  <defs
     id="defs3798">
    <rect
       x="-44.724964"
       y="-14.47557"
       width="33.23539"
       height="28.691488"
       id="rect243" />
    <rect
       x="-0.1947386"
       y="0.1947386"
       width="22.849331"
       height="22.459852"
       id="rect183" />
    <clipPath
       clipPathUnits="userSpaceOnUse"
       id="clipPath929">
      <rect
         style="fill:#0000ff;fill-rule:evenodd;stroke-width:0.26505"
         id="rect931"
         width="9.3837881"
         height="8.5572414"
         x="362.1412"
         y="-59.150501" />
    </clipPath>
  </defs>
  <sodipodi:namedview
     id="base"
     pagecolor="#ffffff"
     bordercolor="#666666"
     borderopacity="1.0"
     inkscape:pageopacity="0.0"
     inkscape:pageshadow="2"
     inkscape:zoom="32"
     inkscape:cx="9.578125"
     inkscape:cy="7.171875"
     inkscape:document-units="mm"
     inkscape:current-layer="g9754"
     showgrid="false"
     inkscape:window-width="1920"
     inkscape:window-height="1015"
     inkscape:window-x="0"
     inkscape:window-y="0"
     inkscape:window-maximized="1"
     inkscape:snap-bbox="true"
     inkscape:snap-page="true"
     showguides="true"
     inkscape:guide-bbox="true"
     inkscape:snap-nodes="false"
     inkscape:snap-others="false"
     inkscape:bbox-nodes="true"
     inkscape:showpageshadow="2"
     inkscape:pagecheckerboard="0"
     inkscape:deskcolor="#d1d1d1">
    <sodipodi:guide
       position="0,5.9999998"
       orientation="0,1"
       id="guide919"
       inkscape:locked="false" />
    <sodipodi:guide
       position="0,5.9999998"
       orientation="1,0"
       id="guide921"
       inkscape:locked="false" />
    <sodipodi:guide
       position="5.9999998,5.9999998"
       orientation="1,0"
       id="guide923"
       inkscape:locked="false" />
    <sodipodi:guide
       position="0,0"
       orientation="0,1"
       id="guide925"
       inkscape:locked="false" />
    <sodipodi:guide
       position="5.9999998,0"
       orientation="0,-1"
       id="guide1"
       inkscape:locked="false" />
    <sodipodi:guide
       position="3.0005463,1.5663937"
       orientation="1,0"
       id="guide2"
       inkscape:locked="false" />
    <sodipodi:guide
       position="3.0005463,1.5663937"
       orientation="0,-1"
       id="guide3"
       inkscape:locked="false" />
  </sodipodi:namedview>
  <metadata
     id="metadata3801">
    <rdf:RDF>
      <cc:Work
         rdf:about="">
        <dc:format>image/svg+xml</dc:format>
        <dc:type
           rdf:resource="http://purl.org/dc/dcmitype/StillImage" />
      </cc:Work>
    </rdf:RDF>
  </metadata>
  <g
     inkscape:label="Calque 1"
     inkscape:groupmode="layer"
     id="layer1"
     transform="translate(0,-291)">
    <g
       id="g9756"
       transform="matrix(0.99911942,0,0,0.99911889,-390.91868,349.20033)"
       inkscape:export-filename="/home/marjorie/images/projets/marion/maquette_final/06.png"
       inkscape:export-xdpi="72"
       inkscape:export-ydpi="72"
       style="stroke-width:1.00088">
      <g
         inkscape:export-ydpi="71.999962"
         inkscape:export-xdpi="71.999962"
         inkscape:export-filename="/home/marjorie/images/projets/marion/maquette2/67.png"
         transform="translate(-15.950324,348.91669)"
         id="g9748"
         style="display:inline;stroke-width:1.00088">
        <g
           inkscape:export-ydpi="71.999962"
           inkscape:export-xdpi="71.999962"
           inkscape:export-filename="/home/marjorie/images/projets/marion/maquette2/26.png"
           transform="translate(-714.75897,-606.79693)"
           id="g9736"
           style="display:inline;stroke-width:1.00088">
          <g
             transform="translate(22.14378)"
             id="g9728"
             style="display:inline;stroke-width:1.00088" />
          <g
             transform="matrix(-1,0,0,1,2225.8743,3.4074327e-7)"
             id="g9730"
             style="display:inline;stroke-width:1.00088" />
          <g
             transform="matrix(1,0,0,-1,22.14378,405.26248)"
             id="g9732"
             style="display:inline;stroke-width:1.00088" />
          <g
             id="g9734"
             transform="rotate(180,1112.9372,202.63125)"
             style="display:inline;stroke-width:1.00088" />
        </g>
        <g
           id="g9746"
           transform="translate(416.39202,121.5227)"
           style="stroke-width:1.00088" />
      </g>
      <g
         transform="translate(28.149595)"
         id="g9754"
         style="stroke-width:1.00088">
        <text
           xml:space="preserve"
           transform="matrix(0.26481653,0,0,0.26481667,363.11362,-58.251656)"
           id="text181"
           style="font-style:normal;font-variant:normal;font-weight:bold;font-stretch:normal;font-size:16px;line-height:0.9;font-family:Ortica;-inkscape-font-specification:'Ortica Bold';text-align:center;letter-spacing:50px;word-spacing:0px;white-space:pre;shape-inside:url(#rect183);display:inline;fill:#000000;fill-opacity:1;stroke:none" />
        <g
           id="g367"
           transform="translate(-0.28064741,-0.05717541)">
          <path
             style="fill:none;stroke:#000000;stroke-width:0.264817;stroke-linecap:butt;stroke-linejoin:miter;stroke-miterlimit:4;stroke-dasharray:none;stroke-opacity:1"
             d="m 363.45393,-55.176843 5.88574,-2.898648"
             id="path1927"
             inkscape:connector-curvature="0"
             sodipodi:nodetypes="cc" />
          <path
             inkscape:connector-curvature="0"
             id="path1929"
             d="m 369.33867,-55.178544 -5.88461,-2.896978"
             style="fill:none;stroke:#000000;stroke-width:0.264817;stroke-linecap:butt;stroke-linejoin:miter;stroke-miterlimit:4;stroke-dasharray:none;stroke-opacity:1"
             sodipodi:nodetypes="cc" />
        </g>
      </g>
    </g>
  </g>
</svg>
