<?xml version="1.0" encoding="UTF-8" standalone="no"?>
<!-- Created with Inkscape (http://www.inkscape.org/) -->

<svg
   xmlns:dc="http://purl.org/dc/elements/1.1/"
   xmlns:cc="http://creativecommons.org/ns#"
   xmlns:rdf="http://www.w3.org/1999/02/22-rdf-syntax-ns#"
   xmlns:svg="http://www.w3.org/2000/svg"
   xmlns="http://www.w3.org/2000/svg"
   xmlns:sodipodi="http://sodipodi.sourceforge.net/DTD/sodipodi-0.dtd"
   xmlns:inkscape="http://www.inkscape.org/namespaces/inkscape"
   width="6mm"
   height="6mm"
   viewBox="0 0 6 6"
   version="1.1"
   id="svg3804"
   inkscape:version="0.92.4 (5da689c313, 2019-01-14)"
   sodipodi:docname="pause.svg">
  <defs
     id="defs3798" />
  <sodipodi:namedview
     id="base"
     pagecolor="#ffffff"
     bordercolor="#666666"
     borderopacity="1.0"
     inkscape:pageopacity="0.0"
     inkscape:pageshadow="2"
     inkscape:zoom="11.362805"
     inkscape:cx="4.1984514"
     inkscape:cy="6.0137233"
     inkscape:document-units="mm"
     inkscape:current-layer="g9754"
     showgrid="false"
     inkscape:window-width="1920"
     inkscape:window-height="1171"
     inkscape:window-x="1920"
     inkscape:window-y="0"
     inkscape:window-maximized="1"
     inkscape:snap-bbox="true"
     inkscape:snap-page="true"
     inkscape:bbox-nodes="true"
     showguides="true"
     inkscape:guide-bbox="true"
     inkscape:snap-global="false" />
  <metadata
     id="metadata3801">
    <rdf:RDF>
      <cc:Work
         rdf:about="">
        <dc:format>image/svg+xml</dc:format>
        <dc:type
           rdf:resource="http://purl.org/dc/dcmitype/StillImage" />
        <dc:title></dc:title>
      </cc:Work>
    </rdf:RDF>
  </metadata>
  <g
     inkscape:label="Calque 1"
     inkscape:groupmode="layer"
     id="layer1"
     transform="translate(0,-291)">
    <g
       id="g9756"
       transform="matrix(0.99911942,0,0,0.99911889,-390.91868,349.20033)"
       inkscape:export-filename="/home/marjorie/images/projets/marion/maquette_final/06.png"
       inkscape:export-xdpi="72"
       inkscape:export-ydpi="72"
       style="stroke-width:1.00088167">
      <g
         inkscape:export-ydpi="71.999962"
         inkscape:export-xdpi="71.999962"
         inkscape:export-filename="/home/marjorie/images/projets/marion/maquette2/67.png"
         transform="translate(-15.950324,348.91669)"
         id="g9748"
         style="display:inline;stroke-width:1.00088167">
        <g
           inkscape:export-ydpi="71.999962"
           inkscape:export-xdpi="71.999962"
           inkscape:export-filename="/home/marjorie/images/projets/marion/maquette2/26.png"
           transform="translate(-714.75897,-606.79693)"
           id="g9736"
           style="display:inline;stroke-width:1.00088167">
          <g
             transform="translate(22.14378)"
             id="g9728"
             style="display:inline;stroke-width:1.00088167" />
          <g
             transform="matrix(-1,0,0,1,2225.8743,3.4074327e-7)"
             id="g9730"
             style="display:inline;stroke-width:1.00088167" />
          <g
             transform="matrix(1,0,0,-1,22.14378,405.26248)"
             id="g9732"
             style="display:inline;stroke-width:1.00088167" />
          <g
             id="g9734"
             transform="rotate(180,1112.9372,202.63125)"
             style="display:inline;stroke-width:1.00088167" />
        </g>
        <g
           id="g9746"
           transform="translate(416.39202,121.5227)"
           style="stroke-width:1.00088167" />
      </g>
      <g
         transform="translate(28.149595)"
         id="g9754"
         style="stroke-width:1.00088167">
        <ellipse
           ry="3.002645"
           rx="3.0026436"
           cy="-55.249008"
           cx="366.11627"
           id="ellipse906"
           style="opacity:0.8;vector-effect:none;fill:#1a1a1a;fill-opacity:1;stroke:none;stroke-width:0.3972249;stroke-linecap:butt;stroke-linejoin:miter;stroke-miterlimit:4;stroke-dasharray:none;stroke-dashoffset:0;stroke-opacity:1;paint-order:normal" />
        <g
           id="g1037"
           transform="translate(-0.06990811)">
          <rect
             ry="0.28870389"
             rx="0.28870389"
             y="-56.231876"
             x="365.42847"
             height="1.965735"
             width="0.57740778"
             id="rect1021"
             style="fill:#ffffff;fill-opacity:1;fill-rule:evenodd;stroke-width:0.26505008" />
          <rect
             style="fill:#ffffff;fill-opacity:1;fill-rule:evenodd;stroke-width:0.26505008"
             id="rect1023"
             width="0.57740778"
             height="1.965735"
             x="366.36649"
             y="-56.231876"
             rx="0.28870389"
             ry="0.28870389" />
        </g>
      </g>
    </g>
  </g>
</svg>
